<svg id="ico_instagram" xmlns="http://www.w3.org/2000/svg" width="60" height="60" viewBox="0 0 60 60">
  <defs>
    <style>
      .cls-1 {
        fill: #fff;
        opacity: 0.5;
      }

      .cls-2 {
        fill: #102536;
        fill-rule: evenodd;
      }
    </style>
  </defs>
  <circle id="circle" class="cls-1" cx="30" cy="30" r="30"/>
  <path id="icon" class="cls-2" d="M1201,177.342c3.47,0,3.88.014,5.25,0.076a7.238,7.238,0,0,1,2.42.448,4.025,4.025,0,0,1,1.49.972,3.892,3.892,0,0,1,.97,1.5,7.179,7.179,0,0,1,.45,2.414c0.06,1.371.08,1.782,0.08,5.253s-0.02,3.882-.08,5.253a7.179,7.179,0,0,1-.45,2.414,3.892,3.892,0,0,1-.97,1.5,4.025,4.025,0,0,1-1.49.972,7.238,7.238,0,0,1-2.42.448c-1.37.062-1.78,0.076-5.25,0.076s-3.88-.014-5.25-0.076a7.238,7.238,0,0,1-2.42-.448,4.025,4.025,0,0,1-1.49-.972,3.892,3.892,0,0,1-.97-1.5,7.179,7.179,0,0,1-.45-2.414c-0.06-1.371-.08-1.782-0.08-5.253s0.02-3.882.08-5.253a7.179,7.179,0,0,1,.45-2.414,3.892,3.892,0,0,1,.97-1.5,4.025,4.025,0,0,1,1.49-.972,7.238,7.238,0,0,1,2.42-.448c1.37-.062,1.78-0.076,5.25-0.076m0-2.342c-3.53,0-3.97.015-5.36,0.078a9.586,9.586,0,0,0-3.16.6,6.655,6.655,0,0,0-3.8,3.8,9.51,9.51,0,0,0-.6,3.156c-0.07,1.387-.08,1.829-0.08,5.36s0.01,3.973.08,5.36a9.51,9.51,0,0,0,.6,3.156,6.655,6.655,0,0,0,3.8,3.8,9.586,9.586,0,0,0,3.16.6c1.39,0.063,1.83.078,5.36,0.078s3.97-.015,5.36-0.078a9.586,9.586,0,0,0,3.16-.6,6.655,6.655,0,0,0,3.8-3.8,9.51,9.51,0,0,0,.6-3.156c0.07-1.387.08-1.829,0.08-5.36s-0.01-3.973-.08-5.36a9.51,9.51,0,0,0-.6-3.156,6.655,6.655,0,0,0-3.8-3.8,9.586,9.586,0,0,0-3.16-.6c-1.39-.063-1.83-0.078-5.36-0.078h0Zm0,6.324a6.676,6.676,0,1,0,6.68,6.676A6.678,6.678,0,0,0,1201,181.324Zm0,11.009a4.333,4.333,0,1,1,4.33-4.333A4.332,4.332,0,0,1,1201,192.333Zm8.5-11.272a1.56,1.56,0,1,1-1.56-1.56A1.561,1.561,0,0,1,1209.5,181.061Z" transform="translate(-1171 -158)"/>
</svg>