<?xml version="1.0" standalone="no"?>
<!DOCTYPE svg PUBLIC "-//W3C//DTD SVG 20010904//EN"
 "http://www.w3.org/TR/2001/REC-SVG-20010904/DTD/svg10.dtd">
<svg version="1.0" xmlns="http://www.w3.org/2000/svg"
 width="313.000000pt" height="313.000000pt" viewBox="0 0 313.000000 313.000000"
 preserveAspectRatio="xMidYMid meet">
<metadata>
Created by potrace 1.11, written by Peter Selinger 2001-2013
</metadata>
<g transform="translate(0.000000,313.000000) scale(0.100000,-0.100000)"
fill="#000000" stroke="none">
<path d="M1859 3103 c19 -38 21 -137 5 -199 -38 -146 -137 -252 -459 -493
-321 -240 -444 -370 -522 -551 -68 -160 -62 -326 19 -468 41 -73 183 -215 275
-275 82 -53 292 -158 253 -126 -191 155 -242 290 -196 509 10 46 95 204 145
270 88 116 227 251 371 360 118 88 219 193 257 265 88 169 72 372 -47 578 -38
68 -123 177 -101 130z"/>
<path d="M2055 2403 c23 -46 23 -148 -2 -203 -27 -61 -101 -132 -182 -177
-153 -85 -250 -161 -315 -245 -31 -41 -47 -49 -42 -20 15 81 20 100 33 127 19
40 -82 -65 -144 -149 -98 -133 -142 -238 -148 -354 -7 -124 35 -225 131 -318
46 -45 131 -104 149 -104 3 0 -6 16 -20 35 -33 43 -53 108 -49 159 8 90 89
189 279 341 147 117 144 115 212 179 156 146 226 292 217 447 -6 95 -47 201
-105 269 -11 14 -18 19 -14 13z"/>
<path d="M2217 1959 c3 -120 -70 -260 -189 -359 -36 -30 -136 -95 -222 -145
-85 -49 -176 -107 -202 -129 -113 -96 -141 -221 -72 -321 l23 -35 6 37 c4 25
17 46 39 65 31 25 67 38 339 123 98 30 184 79 241 137 61 63 88 116 117 233
13 52 11 204 -3 265 -12 55 -67 190 -76 190 -2 0 -2 -27 -1 -61z"/>
<path d="M1830 1028 c-50 -20 -287 -89 -390 -113 -35 -8 -177 -37 -200 -41
-76 -13 -81 -16 -74 -32 4 -10 8 -102 9 -207 3 -194 -13 -363 -49 -533 -9 -40
-16 -78 -16 -83 0 -15 72 1 91 20 23 22 609 900 609 911 0 4 4 10 8 12 9 4 52
63 52 72 0 8 -10 7 -40 -6z"/>
</g>
</svg>
