<svg id="ico_facebook" xmlns="http://www.w3.org/2000/svg" width="60" height="60" viewBox="0 0 60 60">
  <defs>
    <style>
      .cls-1 {
        fill: #fff;
        opacity: 0.5;
      }

      .cls-2 {
        fill: #102536;
        fill-rule: evenodd;
      }
    </style>
  </defs>
  <circle class="cls-1" cx="30" cy="30" r="30"/>
  <path id="icon" class="cls-2" d="M1043.04,204V188.945h5.01l0.75-5.866h-5.76v-3.745c0-1.7.46-2.856,2.88-2.856H1049v-5.248a41.02,41.02,0,0,0-4.49-.23c-4.44,0-7.49,2.733-7.49,7.755v4.325H1032v5.866h5.02V204h6.02Z" transform="translate(-1011 -158)"/>
</svg>